-- Merging decision tree log ---
manifest
ADDED from C:\src\React-Native-Projects\AMapDemo\android\app\src\main\AndroidManifest.xml:1:1-29:12
INJECTED from C:\src\React-Native-Projects\AMapDemo\android\app\src\main\AndroidManifest.xml:1:1-29:12
INJECTED from C:\src\React-Native-Projects\AMapDemo\android\app\src\main\AndroidManifest.xml:1:1-29:12
INJECTED from C:\src\React-Native-Projects\AMapDemo\android\app\src\main\AndroidManifest.xml:1:1-29:12
MERGED from C:\src\React-Native-Projects\AMapDemo\android\app\src\main\AndroidManifest.xml:1:1-29:12
MERGED from [:react-native-amap3d] C:\src\React-Native-Projects\AMapDemo\node_modules\react-native-amap3d\lib\android\build\intermediates\library_manifest\debug\AndroidManifest.xml:2:1-19:12
MERGED from [com.facebook.react:react-native:0.60.3] C:\Users\feiyang_yang\.gradle\caches\transforms-2\files-2.1\185111da957077a72380a07b61b2c5ce\AndroidManifest.xml:2:1-13:12
MERGED from [org.webkit:android-jsc:r245459] C:\Users\feiyang_yang\.gradle\caches\transforms-2\files-2.1\0747280ef2a61bd0848bcff79459a419\AndroidManifest.xml:2:1-11:12
MERGED from [androidx.appcompat:appcompat:1.0.2] C:\Users\feiyang_yang\.gradle\caches\transforms-2\files-2.1\835fcd65c9c869c054651a79d23782ef\AndroidManifest.xml:17:1-22:12
MERGED from [com.facebook.fresco:fresco:2.0.0] C:\Users\feiyang_yang\.gradle\caches\transforms-2\files-2.1\7d11f8836fc7a1cacb09c37e837a4ca4\AndroidManifest.xml:2:1-9:12
MERGED from [com.facebook.fresco:imagepipeline-okhttp3:2.0.0] C:\Users\feiyang_yang\.gradle\caches\transforms-2\files-2.1\b23ba2b0954d579a6a81742d98304c31\AndroidManifest.xml:2:1-9:12
MERGED from [com.facebook.fresco:drawee:2.0.0] C:\Users\feiyang_yang\.gradle\caches\transforms-2\files-2.1\e84f2b361b0dae478c778d608da20515\AndroidManifest.xml:2:1-9:12
MERGED from [com.facebook.fresco:nativeimagefilters:2.0.0] C:\Users\feiyang_yang\.gradle\caches\transforms-2\files-2.1\a2f27813ecceb2b15a58b889aa267d0a\AndroidManifest.xml:2:1-9:12
MERGED from [com.facebook.fresco:imagepipeline:2.0.0] C:\Users\feiyang_yang\.gradle\caches\transforms-2\files-2.1\904c089c76d1a30e8bc2cbbc4f0a1bcb\AndroidManifest.xml:2:1-9:12
MERGED from [com.facebook.fresco:nativeimagetranscoder:2.0.0] C:\Users\feiyang_yang\.gradle\caches\transforms-2\files-2.1\9511d73b0395ea52ed5ee5573ba85fc4\AndroidManifest.xml:2:1-9:12
MERGED from [com.facebook.fresco:imagepipeline-base:2.0.0] C:\Users\feiyang_yang\.gradle\caches\transforms-2\files-2.1\932d928f07bdb3a8f55a07d542a94b13\AndroidManifest.xml:2:1-9:12
MERGED from [com.facebook.soloader:soloader:0.6.0] C:\Users\feiyang_yang\.gradle\caches\transforms-2\files-2.1\0fdfdc6321fd74be51ee08b135f7237b\AndroidManifest.xml:2:1-13:12
MERGED from [androidx.fragment:fragment:1.0.0] C:\Users\feiyang_yang\.gradle\caches\transforms-2\files-2.1\d5574a1f693ad8b6f25eed929ff2240d\AndroidManifest.xml:17:1-22:12
MERGED from [androidx.vectordrawable:vectordrawable-animated:1.0.0] C:\Users\feiyang_yang\.gradle\caches\transforms-2\files-2.1\74765c0bd02733b95fc246fa1fe2a656\AndroidManifest.xml:17:1-22:12
MERGED from [androidx.legacy:legacy-support-core-ui:1.0.0] C:\Users\feiyang_yang\.gradle\caches\transforms-2\files-2.1\5c550ea0fb57c96c27be55846ef3b2ae\AndroidManifest.xml:17:1-22:12
MERGED from [androidx.legacy:legacy-support-core-utils:1.0.0] C:\Users\feiyang_yang\.gradle\caches\transforms-2\files-2.1\e1a033c8105673a6759977ef4869ae32\AndroidManifest.xml:17:1-22:12
MERGED from [androidx.vectordrawable:vectordrawable:1.0.1] C:\Users\feiyang_yang\.gradle\caches\transforms-2\files-2.1\58e453ebdad9d05dc9e7db40372d8557\AndroidManifest.xml:17:1-22:12
MERGED from [androidx.loader:loader:1.0.0] C:\Users\feiyang_yang\.gradle\caches\transforms-2\files-2.1\7c9ac83e07e4d523c66a235029f6178e\AndroidManifest.xml:17:1-22:12
MERGED from [androidx.viewpager:viewpager:1.0.0] C:\Users\feiyang_yang\.gradle\caches\transforms-2\files-2.1\cdd2d818a383e11188e9bc75bab96940\AndroidManifest.xml:17:1-22:12
MERGED from [androidx.coordinatorlayout:coordinatorlayout:1.0.0] C:\Users\feiyang_yang\.gradle\caches\transforms-2\files-2.1\30b12b6aff4848028069a151cecee052\AndroidManifest.xml:17:1-22:12
MERGED from [androidx.drawerlayout:drawerlayout:1.0.0] C:\Users\feiyang_yang\.gradle\caches\transforms-2\files-2.1\716e7ad1bdefd1473e946c70099104d6\AndroidManifest.xml:17:1-22:12
MERGED from [androidx.slidingpanelayout:slidingpanelayout:1.0.0] C:\Users\feiyang_yang\.gradle\caches\transforms-2\files-2.1\619d49ac84f3ace7b80c678b869668b3\AndroidManifest.xml:17:1-22:12
MERGED from [androidx.customview:customview:1.0.0] C:\Users\feiyang_yang\.gradle\caches\transforms-2\files-2.1\014d3ccd7be5bbf437bdb3a1854c611d\AndroidManifest.xml:17:1-22:12
MERGED from [androidx.swiperefreshlayout:swiperefreshlayout:1.0.0] C:\Users\feiyang_yang\.gradle\caches\transforms-2\files-2.1\9cf0d42fc7db4a64f9c7d10e0edf24d9\AndroidManifest.xml:17:1-22:12
MERGED from [androidx.asynclayoutinflater:asynclayoutinflater:1.0.0] C:\Users\feiyang_yang\.gradle\caches\transforms-2\files-2.1\396ebb451a6208c9250bfa498bcc57af\AndroidManifest.xml:17:1-22:12
MERGED from [androidx.core:core:1.0.1] C:\Users\feiyang_yang\.gradle\caches\transforms-2\files-2.1\2c416526d12bb6e0ba63249e31783833\AndroidManifest.xml:17:1-24:12
MERGED from [androidx.versionedparcelable:versionedparcelable:1.0.0] C:\Users\feiyang_yang\.gradle\caches\transforms-2\files-2.1\9d46c2eb71d6da7f4897af60650726f9\AndroidManifest.xml:17:1-25:12
MERGED from [androidx.cursoradapter:cursoradapter:1.0.0] C:\Users\feiyang_yang\.gradle\caches\transforms-2\files-2.1\1a01eda8fcb2ec961f6051a44cb5379a\AndroidManifest.xml:17:1-22:12
MERGED from [androidx.lifecycle:lifecycle-runtime:2.0.0] C:\Users\feiyang_yang\.gradle\caches\transforms-2\files-2.1\f1c8fab34a12ab8da14d932a9f584052\AndroidManifest.xml:17:1-22:12
MERGED from [androidx.documentfile:documentfile:1.0.0] C:\Users\feiyang_yang\.gradle\caches\transforms-2\files-2.1\b1f404bb90c760d58547bf8cb781cd00\AndroidManifest.xml:17:1-22:12
MERGED from [androidx.localbroadcastmanager:localbroadcastmanager:1.0.0] C:\Users\feiyang_yang\.gradle\caches\transforms-2\files-2.1\c834eea58d6f53a9c2386c1683a692cd\AndroidManifest.xml:17:1-22:12
MERGED from [androidx.print:print:1.0.0] C:\Users\feiyang_yang\.gradle\caches\transforms-2\files-2.1\e5a50832b9de4abea67164feb8464671\AndroidManifest.xml:17:1-22:12
MERGED from [androidx.lifecycle:lifecycle-viewmodel:2.0.0] C:\Users\feiyang_yang\.gradle\caches\transforms-2\files-2.1\c7851f6757403d1dd0d25cb367cab0d6\AndroidManifest.xml:17:1-22:12
MERGED from [androidx.lifecycle:lifecycle-livedata:2.0.0] C:\Users\feiyang_yang\.gradle\caches\transforms-2\files-2.1\48c992810e53895412f26ab9748891a5\AndroidManifest.xml:17:1-22:12
MERGED from [androidx.lifecycle:lifecycle-livedata-core:2.0.0] C:\Users\feiyang_yang\.gradle\caches\transforms-2\files-2.1\2437d607e30a642e0215afb223bb0d36\AndroidManifest.xml:17:1-22:12
MERGED from [androidx.arch.core:core-runtime:2.0.0] C:\Users\feiyang_yang\.gradle\caches\transforms-2\files-2.1\fa156ad31e43ed12edbbadeeb6fcae96\AndroidManifest.xml:17:1-22:12
MERGED from [androidx.interpolator:interpolator:1.0.0] C:\Users\feiyang_yang\.gradle\caches\transforms-2\files-2.1\4ae6dfd255c28c4c8a5aef12ca146ee9\AndroidManifest.xml:17:1-22:12
MERGED from [com.facebook.fresco:fbcore:2.0.0] C:\Users\feiyang_yang\.gradle\caches\transforms-2\files-2.1\557be02d9e8a8af2d6076c98233fb7b6\AndroidManifest.xml:2:1-9:12
INJECTED from C:\src\React-Native-Projects\AMapDemo\android\app\src\debug\AndroidManifest.xml:2:1-8:12
INJECTED from C:\src\React-Native-Projects\AMapDemo\android\app\src\debug\AndroidManifest.xml:2:1-8:12
INJECTED from C:\src\React-Native-Projects\AMapDemo\android\app\src\debug\AndroidManifest.xml:2:1-8:12
	package
		ADDED from C:\src\React-Native-Projects\AMapDemo\android\app\src\main\AndroidManifest.xml:2:3-25
		INJECTED from C:\src\React-Native-Projects\AMapDemo\android\app\src\main\AndroidManifest.xml
		ADDED from C:\src\React-Native-Projects\AMapDemo\android\app\src\main\AndroidManifest.xml:2:3-25
		INJECTED from C:\src\React-Native-Projects\AMapDemo\android\app\src\debug\AndroidManifest.xml
	android:versionName
		INJECTED from C:\src\React-Native-Projects\AMapDemo\android\app\src\main\AndroidManifest.xml
		ADDED from C:\src\React-Native-Projects\AMapDemo\android\app\src\main\AndroidManifest.xml:1:1-29:12
		INJECTED from C:\src\React-Native-Projects\AMapDemo\android\app\src\debug\AndroidManifest.xml
	xmlns:tools
		ADDED from C:\src\React-Native-Projects\AMapDemo\android\app\src\debug\AndroidManifest.xml:3:5-51
	android:versionCode
		INJECTED from C:\src\React-Native-Projects\AMapDemo\android\app\src\main\AndroidManifest.xml
		ADDED from C:\src\React-Native-Projects\AMapDemo\android\app\src\main\AndroidManifest.xml:1:1-29:12
		INJECTED from C:\src\React-Native-Projects\AMapDemo\android\app\src\debug\AndroidManifest.xml
	xmlns:android
		ADDED from C:\src\React-Native-Projects\AMapDemo\android\app\src\main\AndroidManifest.xml:1:11-69
uses-permission#android.permission.INTERNET
ADDED from C:\src\React-Native-Projects\AMapDemo\android\app\src\main\AndroidManifest.xml:4:5-67
MERGED from [:react-native-amap3d] C:\src\React-Native-Projects\AMapDemo\node_modules\react-native-amap3d\lib\android\build\intermediates\library_manifest\debug\AndroidManifest.xml:9:5-67
MERGED from [:react-native-amap3d] C:\src\React-Native-Projects\AMapDemo\node_modules\react-native-amap3d\lib\android\build\intermediates\library_manifest\debug\AndroidManifest.xml:9:5-67
	android:name
		ADDED from C:\src\React-Native-Projects\AMapDemo\android\app\src\main\AndroidManifest.xml:4:22-64
application
ADDED from C:\src\React-Native-Projects\AMapDemo\android\app\src\main\AndroidManifest.xml:6:5-27:19
MERGED from C:\src\React-Native-Projects\AMapDemo\android\app\src\main\AndroidManifest.xml:6:5-27:19
MERGED from C:\src\React-Native-Projects\AMapDemo\android\app\src\main\AndroidManifest.xml:6:5-27:19
MERGED from [com.facebook.react:react-native:0.60.3] C:\Users\feiyang_yang\.gradle\caches\transforms-2\files-2.1\185111da957077a72380a07b61b2c5ce\AndroidManifest.xml:11:5-20
MERGED from [com.facebook.react:react-native:0.60.3] C:\Users\feiyang_yang\.gradle\caches\transforms-2\files-2.1\185111da957077a72380a07b61b2c5ce\AndroidManifest.xml:11:5-20
MERGED from [com.facebook.soloader:soloader:0.6.0] C:\Users\feiyang_yang\.gradle\caches\transforms-2\files-2.1\0fdfdc6321fd74be51ee08b135f7237b\AndroidManifest.xml:11:5-20
MERGED from [com.facebook.soloader:soloader:0.6.0] C:\Users\feiyang_yang\.gradle\caches\transforms-2\files-2.1\0fdfdc6321fd74be51ee08b135f7237b\AndroidManifest.xml:11:5-20
MERGED from [androidx.core:core:1.0.1] C:\Users\feiyang_yang\.gradle\caches\transforms-2\files-2.1\2c416526d12bb6e0ba63249e31783833\AndroidManifest.xml:22:5-89
MERGED from [androidx.core:core:1.0.1] C:\Users\feiyang_yang\.gradle\caches\transforms-2\files-2.1\2c416526d12bb6e0ba63249e31783833\AndroidManifest.xml:22:5-89
MERGED from [androidx.versionedparcelable:versionedparcelable:1.0.0] C:\Users\feiyang_yang\.gradle\caches\transforms-2\files-2.1\9d46c2eb71d6da7f4897af60650726f9\AndroidManifest.xml:22:5-23:19
MERGED from [androidx.versionedparcelable:versionedparcelable:1.0.0] C:\Users\feiyang_yang\.gradle\caches\transforms-2\files-2.1\9d46c2eb71d6da7f4897af60650726f9\AndroidManifest.xml:22:5-23:19
	android:appComponentFactory
		ADDED from [androidx.core:core:1.0.1] C:\Users\feiyang_yang\.gradle\caches\transforms-2\files-2.1\2c416526d12bb6e0ba63249e31783833\AndroidManifest.xml:22:18-86
	android:label
		ADDED from C:\src\React-Native-Projects\AMapDemo\android\app\src\main\AndroidManifest.xml:8:7-39
		ADDED from C:\src\React-Native-Projects\AMapDemo\android\app\src\main\AndroidManifest.xml:8:7-39
	tools:ignore
		ADDED from C:\src\React-Native-Projects\AMapDemo\android\app\src\debug\AndroidManifest.xml:7:75-114
	android:roundIcon
		ADDED from C:\src\React-Native-Projects\AMapDemo\android\app\src\main\AndroidManifest.xml:10:7-52
		ADDED from C:\src\React-Native-Projects\AMapDemo\android\app\src\main\AndroidManifest.xml:10:7-52
	tools:targetApi
		ADDED from C:\src\React-Native-Projects\AMapDemo\android\app\src\debug\AndroidManifest.xml:7:54-74
	android:icon
		ADDED from C:\src\React-Native-Projects\AMapDemo\android\app\src\main\AndroidManifest.xml:9:7-41
		ADDED from C:\src\React-Native-Projects\AMapDemo\android\app\src\main\AndroidManifest.xml:9:7-41
	android:allowBackup
		ADDED from C:\src\React-Native-Projects\AMapDemo\android\app\src\main\AndroidManifest.xml:11:7-34
		ADDED from C:\src\React-Native-Projects\AMapDemo\android\app\src\main\AndroidManifest.xml:11:7-34
	android:theme
		ADDED from C:\src\React-Native-Projects\AMapDemo\android\app\src\main\AndroidManifest.xml:12:7-38
		ADDED from C:\src\React-Native-Projects\AMapDemo\android\app\src\main\AndroidManifest.xml:12:7-38
	android:usesCleartextTraffic
		ADDED from C:\src\React-Native-Projects\AMapDemo\android\app\src\debug\AndroidManifest.xml:7:18-53
	android:name
		ADDED from C:\src\React-Native-Projects\AMapDemo\android\app\src\main\AndroidManifest.xml:7:7-38
		ADDED from C:\src\React-Native-Projects\AMapDemo\android\app\src\main\AndroidManifest.xml:7:7-38
meta-data#com.amap.api.v2.apikey
ADDED from C:\src\React-Native-Projects\AMapDemo\android\app\src\main\AndroidManifest.xml:13:7-15:60
	android:value
		ADDED from C:\src\React-Native-Projects\AMapDemo\android\app\src\main\AndroidManifest.xml:15:9-57
	android:name
		ADDED from C:\src\React-Native-Projects\AMapDemo\android\app\src\main\AndroidManifest.xml:14:9-46
activity#com.amapdemo.MainActivity
ADDED from C:\src\React-Native-Projects\AMapDemo\android\app\src\main\AndroidManifest.xml:16:7-25:18
	android:label
		ADDED from C:\src\React-Native-Projects\AMapDemo\android\app\src\main\AndroidManifest.xml:18:9-41
	android:windowSoftInputMode
		ADDED from C:\src\React-Native-Projects\AMapDemo\android\app\src\main\AndroidManifest.xml:20:9-51
	android:configChanges
		ADDED from C:\src\React-Native-Projects\AMapDemo\android\app\src\main\AndroidManifest.xml:19:9-79
	android:name
		ADDED from C:\src\React-Native-Projects\AMapDemo\android\app\src\main\AndroidManifest.xml:17:9-37
intent-filter#action:name:android.intent.action.MAIN+category:name:android.intent.category.LAUNCHER
ADDED from C:\src\React-Native-Projects\AMapDemo\android\app\src\main\AndroidManifest.xml:21:9-24:25
action#android.intent.action.MAIN
ADDED from C:\src\React-Native-Projects\AMapDemo\android\app\src\main\AndroidManifest.xml:22:13-65
	android:name
		ADDED from C:\src\React-Native-Projects\AMapDemo\android\app\src\main\AndroidManifest.xml:22:21-62
category#android.intent.category.LAUNCHER
ADDED from C:\src\React-Native-Projects\AMapDemo\android\app\src\main\AndroidManifest.xml:23:13-73
	android:name
		ADDED from C:\src\React-Native-Projects\AMapDemo\android\app\src\main\AndroidManifest.xml:23:23-70
activity#com.facebook.react.devsupport.DevSettingsActivity
ADDED from C:\src\React-Native-Projects\AMapDemo\android\app\src\main\AndroidManifest.xml:26:7-84
	android:name
		ADDED from C:\src\React-Native-Projects\AMapDemo\android\app\src\main\AndroidManifest.xml:26:17-81
uses-sdk
INJECTED from C:\src\React-Native-Projects\AMapDemo\android\app\src\main\AndroidManifest.xml reason: use-sdk injection requested
INJECTED from C:\src\React-Native-Projects\AMapDemo\android\app\src\main\AndroidManifest.xml
INJECTED from C:\src\React-Native-Projects\AMapDemo\android\app\src\main\AndroidManifest.xml
MERGED from [:react-native-amap3d] C:\src\React-Native-Projects\AMapDemo\node_modules\react-native-amap3d\lib\android\build\intermediates\library_manifest\debug\AndroidManifest.xml:5:5-7:41
MERGED from [:react-native-amap3d] C:\src\React-Native-Projects\AMapDemo\node_modules\react-native-amap3d\lib\android\build\intermediates\library_manifest\debug\AndroidManifest.xml:5:5-7:41
MERGED from [com.facebook.react:react-native:0.60.3] C:\Users\feiyang_yang\.gradle\caches\transforms-2\files-2.1\185111da957077a72380a07b61b2c5ce\AndroidManifest.xml:7:5-9:41
MERGED from [com.facebook.react:react-native:0.60.3] C:\Users\feiyang_yang\.gradle\caches\transforms-2\files-2.1\185111da957077a72380a07b61b2c5ce\AndroidManifest.xml:7:5-9:41
MERGED from [org.webkit:android-jsc:r245459] C:\Users\feiyang_yang\.gradle\caches\transforms-2\files-2.1\0747280ef2a61bd0848bcff79459a419\AndroidManifest.xml:7:5-9:41
MERGED from [org.webkit:android-jsc:r245459] C:\Users\feiyang_yang\.gradle\caches\transforms-2\files-2.1\0747280ef2a61bd0848bcff79459a419\AndroidManifest.xml:7:5-9:41
MERGED from [androidx.appcompat:appcompat:1.0.2] C:\Users\feiyang_yang\.gradle\caches\transforms-2\files-2.1\835fcd65c9c869c054651a79d23782ef\AndroidManifest.xml:20:5-44
MERGED from [androidx.appcompat:appcompat:1.0.2] C:\Users\feiyang_yang\.gradle\caches\transforms-2\files-2.1\835fcd65c9c869c054651a79d23782ef\AndroidManifest.xml:20:5-44
MERGED from [com.facebook.fresco:fresco:2.0.0] C:\Users\feiyang_yang\.gradle\caches\transforms-2\files-2.1\7d11f8836fc7a1cacb09c37e837a4ca4\AndroidManifest.xml:5:5-7:41
MERGED from [com.facebook.fresco:fresco:2.0.0] C:\Users\feiyang_yang\.gradle\caches\transforms-2\files-2.1\7d11f8836fc7a1cacb09c37e837a4ca4\AndroidManifest.xml:5:5-7:41
MERGED from [com.facebook.fresco:imagepipeline-okhttp3:2.0.0] C:\Users\feiyang_yang\.gradle\caches\transforms-2\files-2.1\b23ba2b0954d579a6a81742d98304c31\AndroidManifest.xml:5:5-7:41
MERGED from [com.facebook.fresco:imagepipeline-okhttp3:2.0.0] C:\Users\feiyang_yang\.gradle\caches\transforms-2\files-2.1\b23ba2b0954d579a6a81742d98304c31\AndroidManifest.xml:5:5-7:41
MERGED from [com.facebook.fresco:drawee:2.0.0] C:\Users\feiyang_yang\.gradle\caches\transforms-2\files-2.1\e84f2b361b0dae478c778d608da20515\AndroidManifest.xml:5:5-7:41
MERGED from [com.facebook.fresco:drawee:2.0.0] C:\Users\feiyang_yang\.gradle\caches\transforms-2\files-2.1\e84f2b361b0dae478c778d608da20515\AndroidManifest.xml:5:5-7:41
MERGED from [com.facebook.fresco:nativeimagefilters:2.0.0] C:\Users\feiyang_yang\.gradle\caches\transforms-2\files-2.1\a2f27813ecceb2b15a58b889aa267d0a\AndroidManifest.xml:5:5-7:41
MERGED from [com.facebook.fresco:nativeimagefilters:2.0.0] C:\Users\feiyang_yang\.gradle\caches\transforms-2\files-2.1\a2f27813ecceb2b15a58b889aa267d0a\AndroidManifest.xml:5:5-7:41
MERGED from [com.facebook.fresco:imagepipeline:2.0.0] C:\Users\feiyang_yang\.gradle\caches\transforms-2\files-2.1\904c089c76d1a30e8bc2cbbc4f0a1bcb\AndroidManifest.xml:5:5-7:41
MERGED from [com.facebook.fresco:imagepipeline:2.0.0] C:\Users\feiyang_yang\.gradle\caches\transforms-2\files-2.1\904c089c76d1a30e8bc2cbbc4f0a1bcb\AndroidManifest.xml:5:5-7:41
MERGED from [com.facebook.fresco:nativeimagetranscoder:2.0.0] C:\Users\feiyang_yang\.gradle\caches\transforms-2\files-2.1\9511d73b0395ea52ed5ee5573ba85fc4\AndroidManifest.xml:5:5-7:41
MERGED from [com.facebook.fresco:nativeimagetranscoder:2.0.0] C:\Users\feiyang_yang\.gradle\caches\transforms-2\files-2.1\9511d73b0395ea52ed5ee5573ba85fc4\AndroidManifest.xml:5:5-7:41
MERGED from [com.facebook.fresco:imagepipeline-base:2.0.0] C:\Users\feiyang_yang\.gradle\caches\transforms-2\files-2.1\932d928f07bdb3a8f55a07d542a94b13\AndroidManifest.xml:5:5-7:41
MERGED from [com.facebook.fresco:imagepipeline-base:2.0.0] C:\Users\feiyang_yang\.gradle\caches\transforms-2\files-2.1\932d928f07bdb3a8f55a07d542a94b13\AndroidManifest.xml:5:5-7:41
MERGED from [com.facebook.soloader:soloader:0.6.0] C:\Users\feiyang_yang\.gradle\caches\transforms-2\files-2.1\0fdfdc6321fd74be51ee08b135f7237b\AndroidManifest.xml:7:5-9:41
MERGED from [com.facebook.soloader:soloader:0.6.0] C:\Users\feiyang_yang\.gradle\caches\transforms-2\files-2.1\0fdfdc6321fd74be51ee08b135f7237b\AndroidManifest.xml:7:5-9:41
MERGED from [androidx.fragment:fragment:1.0.0] C:\Users\feiyang_yang\.gradle\caches\transforms-2\files-2.1\d5574a1f693ad8b6f25eed929ff2240d\AndroidManifest.xml:20:5-44
MERGED from [androidx.fragment:fragment:1.0.0] C:\Users\feiyang_yang\.gradle\caches\transforms-2\files-2.1\d5574a1f693ad8b6f25eed929ff2240d\AndroidManifest.xml:20:5-44
MERGED from [androidx.vectordrawable:vectordrawable-animated:1.0.0] C:\Users\feiyang_yang\.gradle\caches\transforms-2\files-2.1\74765c0bd02733b95fc246fa1fe2a656\AndroidManifest.xml:20:5-44
MERGED from [androidx.vectordrawable:vectordrawable-animated:1.0.0] C:\Users\feiyang_yang\.gradle\caches\transforms-2\files-2.1\74765c0bd02733b95fc246fa1fe2a656\AndroidManifest.xml:20:5-44
MERGED from [androidx.legacy:legacy-support-core-ui:1.0.0] C:\Users\feiyang_yang\.gradle\caches\transforms-2\files-2.1\5c550ea0fb57c96c27be55846ef3b2ae\AndroidManifest.xml:20:5-44
MERGED from [androidx.legacy:legacy-support-core-ui:1.0.0] C:\Users\feiyang_yang\.gradle\caches\transforms-2\files-2.1\5c550ea0fb57c96c27be55846ef3b2ae\AndroidManifest.xml:20:5-44
MERGED from [androidx.legacy:legacy-support-core-utils:1.0.0] C:\Users\feiyang_yang\.gradle\caches\transforms-2\files-2.1\e1a033c8105673a6759977ef4869ae32\AndroidManifest.xml:20:5-44
MERGED from [androidx.legacy:legacy-support-core-utils:1.0.0] C:\Users\feiyang_yang\.gradle\caches\transforms-2\files-2.1\e1a033c8105673a6759977ef4869ae32\AndroidManifest.xml:20:5-44
MERGED from [androidx.vectordrawable:vectordrawable:1.0.1] C:\Users\feiyang_yang\.gradle\caches\transforms-2\files-2.1\58e453ebdad9d05dc9e7db40372d8557\AndroidManifest.xml:20:5-44
MERGED from [androidx.vectordrawable:vectordrawable:1.0.1] C:\Users\feiyang_yang\.gradle\caches\transforms-2\files-2.1\58e453ebdad9d05dc9e7db40372d8557\AndroidManifest.xml:20:5-44
MERGED from [androidx.loader:loader:1.0.0] C:\Users\feiyang_yang\.gradle\caches\transforms-2\files-2.1\7c9ac83e07e4d523c66a235029f6178e\AndroidManifest.xml:20:5-44
MERGED from [androidx.loader:loader:1.0.0] C:\Users\feiyang_yang\.gradle\caches\transforms-2\files-2.1\7c9ac83e07e4d523c66a235029f6178e\AndroidManifest.xml:20:5-44
MERGED from [androidx.viewpager:viewpager:1.0.0] C:\Users\feiyang_yang\.gradle\caches\transforms-2\files-2.1\cdd2d818a383e11188e9bc75bab96940\AndroidManifest.xml:20:5-44
MERGED from [androidx.viewpager:viewpager:1.0.0] C:\Users\feiyang_yang\.gradle\caches\transforms-2\files-2.1\cdd2d818a383e11188e9bc75bab96940\AndroidManifest.xml:20:5-44
MERGED from [androidx.coordinatorlayout:coordinatorlayout:1.0.0] C:\Users\feiyang_yang\.gradle\caches\transforms-2\files-2.1\30b12b6aff4848028069a151cecee052\AndroidManifest.xml:20:5-44
MERGED from [androidx.coordinatorlayout:coordinatorlayout:1.0.0] C:\Users\feiyang_yang\.gradle\caches\transforms-2\files-2.1\30b12b6aff4848028069a151cecee052\AndroidManifest.xml:20:5-44
MERGED from [androidx.drawerlayout:drawerlayout:1.0.0] C:\Users\feiyang_yang\.gradle\caches\transforms-2\files-2.1\716e7ad1bdefd1473e946c70099104d6\AndroidManifest.xml:20:5-44
MERGED from [androidx.drawerlayout:drawerlayout:1.0.0] C:\Users\feiyang_yang\.gradle\caches\transforms-2\files-2.1\716e7ad1bdefd1473e946c70099104d6\AndroidManifest.xml:20:5-44
MERGED from [androidx.slidingpanelayout:slidingpanelayout:1.0.0] C:\Users\feiyang_yang\.gradle\caches\transforms-2\files-2.1\619d49ac84f3ace7b80c678b869668b3\AndroidManifest.xml:20:5-44
MERGED from [androidx.slidingpanelayout:slidingpanelayout:1.0.0] C:\Users\feiyang_yang\.gradle\caches\transforms-2\files-2.1\619d49ac84f3ace7b80c678b869668b3\AndroidManifest.xml:20:5-44
MERGED from [androidx.customview:customview:1.0.0] C:\Users\feiyang_yang\.gradle\caches\transforms-2\files-2.1\014d3ccd7be5bbf437bdb3a1854c611d\AndroidManifest.xml:20:5-44
MERGED from [androidx.customview:customview:1.0.0] C:\Users\feiyang_yang\.gradle\caches\transforms-2\files-2.1\014d3ccd7be5bbf437bdb3a1854c611d\AndroidManifest.xml:20:5-44
MERGED from [androidx.swiperefreshlayout:swiperefreshlayout:1.0.0] C:\Users\feiyang_yang\.gradle\caches\transforms-2\files-2.1\9cf0d42fc7db4a64f9c7d10e0edf24d9\AndroidManifest.xml:20:5-44
MERGED from [androidx.swiperefreshlayout:swiperefreshlayout:1.0.0] C:\Users\feiyang_yang\.gradle\caches\transforms-2\files-2.1\9cf0d42fc7db4a64f9c7d10e0edf24d9\AndroidManifest.xml:20:5-44
MERGED from [androidx.asynclayoutinflater:asynclayoutinflater:1.0.0] C:\Users\feiyang_yang\.gradle\caches\transforms-2\files-2.1\396ebb451a6208c9250bfa498bcc57af\AndroidManifest.xml:20:5-44
MERGED from [androidx.asynclayoutinflater:asynclayoutinflater:1.0.0] C:\Users\feiyang_yang\.gradle\caches\transforms-2\files-2.1\396ebb451a6208c9250bfa498bcc57af\AndroidManifest.xml:20:5-44
MERGED from [androidx.core:core:1.0.1] C:\Users\feiyang_yang\.gradle\caches\transforms-2\files-2.1\2c416526d12bb6e0ba63249e31783833\AndroidManifest.xml:20:5-44
MERGED from [androidx.core:core:1.0.1] C:\Users\feiyang_yang\.gradle\caches\transforms-2\files-2.1\2c416526d12bb6e0ba63249e31783833\AndroidManifest.xml:20:5-44
MERGED from [androidx.versionedparcelable:versionedparcelable:1.0.0] C:\Users\feiyang_yang\.gradle\caches\transforms-2\files-2.1\9d46c2eb71d6da7f4897af60650726f9\AndroidManifest.xml:20:5-44
MERGED from [androidx.versionedparcelable:versionedparcelable:1.0.0] C:\Users\feiyang_yang\.gradle\caches\transforms-2\files-2.1\9d46c2eb71d6da7f4897af60650726f9\AndroidManifest.xml:20:5-44
MERGED from [androidx.cursoradapter:cursoradapter:1.0.0] C:\Users\feiyang_yang\.gradle\caches\transforms-2\files-2.1\1a01eda8fcb2ec961f6051a44cb5379a\AndroidManifest.xml:20:5-44
MERGED from [androidx.cursoradapter:cursoradapter:1.0.0] C:\Users\feiyang_yang\.gradle\caches\transforms-2\files-2.1\1a01eda8fcb2ec961f6051a44cb5379a\AndroidManifest.xml:20:5-44
MERGED from [androidx.lifecycle:lifecycle-runtime:2.0.0] C:\Users\feiyang_yang\.gradle\caches\transforms-2\files-2.1\f1c8fab34a12ab8da14d932a9f584052\AndroidManifest.xml:20:5-44
MERGED from [androidx.lifecycle:lifecycle-runtime:2.0.0] C:\Users\feiyang_yang\.gradle\caches\transforms-2\files-2.1\f1c8fab34a12ab8da14d932a9f584052\AndroidManifest.xml:20:5-44
MERGED from [androidx.documentfile:documentfile:1.0.0] C:\Users\feiyang_yang\.gradle\caches\transforms-2\files-2.1\b1f404bb90c760d58547bf8cb781cd00\AndroidManifest.xml:20:5-44
MERGED from [androidx.documentfile:documentfile:1.0.0] C:\Users\feiyang_yang\.gradle\caches\transforms-2\files-2.1\b1f404bb90c760d58547bf8cb781cd00\AndroidManifest.xml:20:5-44
MERGED from [androidx.localbroadcastmanager:localbroadcastmanager:1.0.0] C:\Users\feiyang_yang\.gradle\caches\transforms-2\files-2.1\c834eea58d6f53a9c2386c1683a692cd\AndroidManifest.xml:20:5-44
MERGED from [androidx.localbroadcastmanager:localbroadcastmanager:1.0.0] C:\Users\feiyang_yang\.gradle\caches\transforms-2\files-2.1\c834eea58d6f53a9c2386c1683a692cd\AndroidManifest.xml:20:5-44
MERGED from [androidx.print:print:1.0.0] C:\Users\feiyang_yang\.gradle\caches\transforms-2\files-2.1\e5a50832b9de4abea67164feb8464671\AndroidManifest.xml:20:5-44
MERGED from [androidx.print:print:1.0.0] C:\Users\feiyang_yang\.gradle\caches\transforms-2\files-2.1\e5a50832b9de4abea67164feb8464671\AndroidManifest.xml:20:5-44
MERGED from [androidx.lifecycle:lifecycle-viewmodel:2.0.0] C:\Users\feiyang_yang\.gradle\caches\transforms-2\files-2.1\c7851f6757403d1dd0d25cb367cab0d6\AndroidManifest.xml:20:5-44
MERGED from [androidx.lifecycle:lifecycle-viewmodel:2.0.0] C:\Users\feiyang_yang\.gradle\caches\transforms-2\files-2.1\c7851f6757403d1dd0d25cb367cab0d6\AndroidManifest.xml:20:5-44
MERGED from [androidx.lifecycle:lifecycle-livedata:2.0.0] C:\Users\feiyang_yang\.gradle\caches\transforms-2\files-2.1\48c992810e53895412f26ab9748891a5\AndroidManifest.xml:20:5-44
MERGED from [androidx.lifecycle:lifecycle-livedata:2.0.0] C:\Users\feiyang_yang\.gradle\caches\transforms-2\files-2.1\48c992810e53895412f26ab9748891a5\AndroidManifest.xml:20:5-44
MERGED from [androidx.lifecycle:lifecycle-livedata-core:2.0.0] C:\Users\feiyang_yang\.gradle\caches\transforms-2\files-2.1\2437d607e30a642e0215afb223bb0d36\AndroidManifest.xml:20:5-44
MERGED from [androidx.lifecycle:lifecycle-livedata-core:2.0.0] C:\Users\feiyang_yang\.gradle\caches\transforms-2\files-2.1\2437d607e30a642e0215afb223bb0d36\AndroidManifest.xml:20:5-44
MERGED from [androidx.arch.core:core-runtime:2.0.0] C:\Users\feiyang_yang\.gradle\caches\transforms-2\files-2.1\fa156ad31e43ed12edbbadeeb6fcae96\AndroidManifest.xml:20:5-44
MERGED from [androidx.arch.core:core-runtime:2.0.0] C:\Users\feiyang_yang\.gradle\caches\transforms-2\files-2.1\fa156ad31e43ed12edbbadeeb6fcae96\AndroidManifest.xml:20:5-44
MERGED from [androidx.interpolator:interpolator:1.0.0] C:\Users\feiyang_yang\.gradle\caches\transforms-2\files-2.1\4ae6dfd255c28c4c8a5aef12ca146ee9\AndroidManifest.xml:20:5-44
MERGED from [androidx.interpolator:interpolator:1.0.0] C:\Users\feiyang_yang\.gradle\caches\transforms-2\files-2.1\4ae6dfd255c28c4c8a5aef12ca146ee9\AndroidManifest.xml:20:5-44
MERGED from [com.facebook.fresco:fbcore:2.0.0] C:\Users\feiyang_yang\.gradle\caches\transforms-2\files-2.1\557be02d9e8a8af2d6076c98233fb7b6\AndroidManifest.xml:5:5-7:41
MERGED from [com.facebook.fresco:fbcore:2.0.0] C:\Users\feiyang_yang\.gradle\caches\transforms-2\files-2.1\557be02d9e8a8af2d6076c98233fb7b6\AndroidManifest.xml:5:5-7:41
INJECTED from C:\src\React-Native-Projects\AMapDemo\android\app\src\debug\AndroidManifest.xml
INJECTED from C:\src\React-Native-Projects\AMapDemo\android\app\src\debug\AndroidManifest.xml
	android:targetSdkVersion
		INJECTED from C:\src\React-Native-Projects\AMapDemo\android\app\src\main\AndroidManifest.xml
		INJECTED from C:\src\React-Native-Projects\AMapDemo\android\app\src\debug\AndroidManifest.xml
	android:minSdkVersion
		INJECTED from C:\src\React-Native-Projects\AMapDemo\android\app\src\main\AndroidManifest.xml
		INJECTED from C:\src\React-Native-Projects\AMapDemo\android\app\src\debug\AndroidManifest.xml
uses-permission#android.permission.SYSTEM_ALERT_WINDOW
ADDED from C:\src\React-Native-Projects\AMapDemo\android\app\src\debug\AndroidManifest.xml:5:5-77
	android:name
		ADDED from C:\src\React-Native-Projects\AMapDemo\android\app\src\debug\AndroidManifest.xml:5:22-75
uses-permission#android.permission.WRITE_EXTERNAL_STORAGE
ADDED from [:react-native-amap3d] C:\src\React-Native-Projects\AMapDemo\node_modules\react-native-amap3d\lib\android\build\intermediates\library_manifest\debug\AndroidManifest.xml:10:5-81
	android:name
		ADDED from [:react-native-amap3d] C:\src\React-Native-Projects\AMapDemo\node_modules\react-native-amap3d\lib\android\build\intermediates\library_manifest\debug\AndroidManifest.xml:10:22-78
uses-permission#android.permission.ACCESS_NETWORK_STATE
ADDED from [:react-native-amap3d] C:\src\React-Native-Projects\AMapDemo\node_modules\react-native-amap3d\lib\android\build\intermediates\library_manifest\debug\AndroidManifest.xml:11:5-79
	android:name
		ADDED from [:react-native-amap3d] C:\src\React-Native-Projects\AMapDemo\node_modules\react-native-amap3d\lib\android\build\intermediates\library_manifest\debug\AndroidManifest.xml:11:22-76
uses-permission#android.permission.ACCESS_WIFI_STATE
ADDED from [:react-native-amap3d] C:\src\React-Native-Projects\AMapDemo\node_modules\react-native-amap3d\lib\android\build\intermediates\library_manifest\debug\AndroidManifest.xml:12:5-76
	android:name
		ADDED from [:react-native-amap3d] C:\src\React-Native-Projects\AMapDemo\node_modules\react-native-amap3d\lib\android\build\intermediates\library_manifest\debug\AndroidManifest.xml:12:22-73
uses-permission#android.permission.CHANGE_WIFI_STATE
ADDED from [:react-native-amap3d] C:\src\React-Native-Projects\AMapDemo\node_modules\react-native-amap3d\lib\android\build\intermediates\library_manifest\debug\AndroidManifest.xml:13:5-76
	android:name
		ADDED from [:react-native-amap3d] C:\src\React-Native-Projects\AMapDemo\node_modules\react-native-amap3d\lib\android\build\intermediates\library_manifest\debug\AndroidManifest.xml:13:22-73
uses-permission#android.permission.READ_PHONE_STATE
ADDED from [:react-native-amap3d] C:\src\React-Native-Projects\AMapDemo\node_modules\react-native-amap3d\lib\android\build\intermediates\library_manifest\debug\AndroidManifest.xml:14:5-75
	android:name
		ADDED from [:react-native-amap3d] C:\src\React-Native-Projects\AMapDemo\node_modules\react-native-amap3d\lib\android\build\intermediates\library_manifest\debug\AndroidManifest.xml:14:22-72
uses-permission#android.permission.ACCESS_COARSE_LOCATION
ADDED from [:react-native-amap3d] C:\src\React-Native-Projects\AMapDemo\node_modules\react-native-amap3d\lib\android\build\intermediates\library_manifest\debug\AndroidManifest.xml:15:5-81
	android:name
		ADDED from [:react-native-amap3d] C:\src\React-Native-Projects\AMapDemo\node_modules\react-native-amap3d\lib\android\build\intermediates\library_manifest\debug\AndroidManifest.xml:15:22-78
uses-permission#android.permission.ACCESS_FINE_LOCATION
ADDED from [:react-native-amap3d] C:\src\React-Native-Projects\AMapDemo\node_modules\react-native-amap3d\lib\android\build\intermediates\library_manifest\debug\AndroidManifest.xml:16:5-79
	android:name
		ADDED from [:react-native-amap3d] C:\src\React-Native-Projects\AMapDemo\node_modules\react-native-amap3d\lib\android\build\intermediates\library_manifest\debug\AndroidManifest.xml:16:22-76
uses-permission#android.permission.WAKE_LOCK
ADDED from [:react-native-amap3d] C:\src\React-Native-Projects\AMapDemo\node_modules\react-native-amap3d\lib\android\build\intermediates\library_manifest\debug\AndroidManifest.xml:17:5-68
	android:name
		ADDED from [:react-native-amap3d] C:\src\React-Native-Projects\AMapDemo\node_modules\react-native-amap3d\lib\android\build\intermediates\library_manifest\debug\AndroidManifest.xml:17:22-65
uses-permission#android.permission.READ_EXTERNAL_STORAGE
IMPLIED from C:\src\React-Native-Projects\AMapDemo\android\app\src\debug\AndroidManifest.xml:2:1-8:12 reason: cn.qiuxiang.react.amap3d requested WRITE_EXTERNAL_STORAGE
